 ___   __ _  _   _   ___   ___  _ __  ______  _ __ ___  __   __  ___ 
/ __| / _` || | | | / __| / _ \| '__||______|| '_ ` _ \ \ \ / / / __|
\__ \| (_| || |_| || (__ |  __/| |           | | | | | | \ V / | (__ 
|___/ \__,_| \__,_| \___| \___||_|           |_| |_| |_|  \_/   \___|
